20
0.000000
0.000000


0.0
0.0
0.0
0.0
0.0
0.0
0.0
0.0
0.0
0.0
0.0
0.0
0.0
0.0
0.0
0.0
0.0
0.0
0.0
0.0
0.0

0.081553
0.426631
0.568848
-0.502789
-0.128220
-0.435738
-0.348879
0.128948
0.045576
-0.289450
0.048781
-0.354339
0.273338
0.900379
-0.305614
0.117820
0.141584
0.194476
-0.021256
-0.111908

0.353419
-0.097927
0.389741
0.243083
-0.336347
0.166491
-0.072994
0.017063
-0.324963
0.169753
0.027633
-0.870442
0.125427
0.342717
0.099973
-0.244877
-0.357507
0.319781
-0.236908

-0.056157
-0.179468
0.111268
-0.135234
-0.029389
-0.079183
-0.235617
0.197951
-0.698542
0.131127
0.061888
-0.619739
0.367740
-0.161619
-0.185990
-0.678679
-0.142067
-0.003966

0.701963
-0.041826
0.388943
0.534033
0.275594
-0.097178
0.125153
0.246242
-0.430059
-0.530827
-0.093322
-0.433012
0.291920
0.010121
-0.627608
0.323705
0.174866

-0.073145
-0.186174
0.016316
0.411457
-0.402362
0.491640
-0.031645
0.034439
-0.129541
0.026183
-0.129373
-0.034842
-0.494044
0.381081
0.323671
0.046249

0.553226
0.485911
0.142607
0.089138
-0.262140
-0.302480
0.237108
-0.528338
0.500438
-0.027833
0.357806
-0.295470
-0.524512
-0.240258
-0.504283

-0.078432
0.291858
0.031070
-0.038642
0.480908
-0.198523
0.357243
0.196600
-0.153644
0.765287
0.442432
-0.286014
0.227902
0.466241

0.392551
-0.059625
0.200538
-0.468885
-0.058020
-0.284558
-0.096826
0.311937
0.000396
0.147358
0.395159
0.372012
0.362592

-0.117411
0.081203
-0.173082
-0.186838
-0.626013
0.220451
0.073642
0.060668
0.383668
-0.593914
-0.303292
0.074573

0.084789
0.045141
-0.120325
-0.037095
0.014670
0.217459
-0.630983
-0.432735
-0.090050
-0.205353
0.056339

-0.161365
-0.352376
0.066567
0.287437
-0.296898
-0.029977
-0.803003
0.255198
-0.546963
-0.122039

-0.000727
0.179239
-0.169458
0.109036
0.237348
0.381594
0.008841
-0.102676
-0.091471

0.355301
-0.186524
0.253168
-0.127866
0.090694
0.031939
-0.376384
-0.007257

-0.152785
-0.266961
-0.094049
-0.276912
-0.452899
0.025443
-0.421100

-0.275975
0.667552
0.354217
-0.136487
0.086701
0.174718

0.003189
0.086487
0.135358
-0.018240
0.346642

-0.223676
-0.102268
0.362454
0.215395

-0.067085
0.173723
0.679878

0.337190
-0.109486

0.084862
